<svg id="Group_111" data-name="Group 111" xmlns="http://www.w3.org/2000/svg" width="118" height="55.067" viewBox="0 0 118 55.067">
  <path id="Path_626" data-name="Path 626" d="M137.511,232.058,125.774,204.91s9.49-1.26,12.146,3.81a39.582,39.582,0,0,1,2.075,4.831A64.577,64.577,0,0,1,142,221.035l3.98-12.451s1.055-3.538,8.981-3.572h11.091l.136,16.908a2.7,2.7,0,0,0,2.994,2.382c2.79-.068,3.674-1.429,3.81-3.81s0-15.717,0-15.717h10.343l-.136,27.012h-9.594v-3.811s-1.531,4.967-8.948,4.8c-7.178-.165-9.475-4.641-9.492-7.246V212.054l-8.913,20.072Z" transform="translate(-125.366 -191.878)" fill="#fff"/>
  <g id="Group_60" data-name="Group 60" transform="translate(0.461 0)">
    <path id="Path_627" data-name="Path 627" d="M128.211,195.7H127.4l-1.555-6.214h.676l1.3,5.521h.018l1.3-5.521h.658Z" transform="translate(-125.847 -187.733)" fill="#fff"/>
    <path id="Path_628" data-name="Path 628" d="M132.18,194.28a3.335,3.335,0,0,0,.062.663,1.952,1.952,0,0,0,.184.527.988.988,0,0,0,.3.351.738.738,0,0,0,.433.127.707.707,0,0,0,.518-.193,1.326,1.326,0,0,0,.3-.465l.445.255a1.689,1.689,0,0,1-.475.663,1.2,1.2,0,0,1-.8.268A1.3,1.3,0,0,1,132,195.86a3.035,3.035,0,0,1-.409-1.694,3.905,3.905,0,0,1,.107-.939,2.384,2.384,0,0,1,.306-.737,1.475,1.475,0,0,1,.487-.478,1.338,1.338,0,0,1,1.3,0,1.283,1.283,0,0,1,.439.456,2.171,2.171,0,0,1,.244.676,4.345,4.345,0,0,1,.075.825v.316Zm1.786-.483a2.323,2.323,0,0,0-.206-1.058.678.678,0,0,0-.643-.4.631.631,0,0,0-.433.154,1.227,1.227,0,0,0-.286.377,1.88,1.88,0,0,0-.16.478,2.392,2.392,0,0,0-.05.448Z" transform="translate(-127.39 -188.364)" fill="#fff"/>
    <path id="Path_629" data-name="Path 629" d="M139.353,196.334v-2.809a3.854,3.854,0,0,0-.023-.408,1.277,1.277,0,0,0-.1-.377.726.726,0,0,0-.214-.281.559.559,0,0,0-.36-.11.687.687,0,0,0-.4.118,1,1,0,0,0-.293.325,1.8,1.8,0,0,0-.186.474,2.29,2.29,0,0,0-.067.557v2.51h-.586v-3.256q0-.14,0-.3c0-.108-.007-.214-.01-.316s-.006-.2-.009-.281-.007-.151-.013-.2h.569q.018.167.026.4t.009.448h.018a1.577,1.577,0,0,1,.409-.715.979.979,0,0,1,.711-.276,1,1,0,0,1,.573.149.975.975,0,0,1,.333.391,1.816,1.816,0,0,1,.156.544,4.641,4.641,0,0,1,.04.6v2.809Z" transform="translate(-128.868 -188.364)" fill="#fff"/>
    <path id="Path_630" data-name="Path 630" d="M143.8,196.023a1.217,1.217,0,0,1-.293.035.7.7,0,0,1-.652-.316,1.612,1.612,0,0,1-.192-.843v-2.835h-.577v-.474h.568v-1.2h.578v1.2h.782v.474h-.782v2.73a1.092,1.092,0,0,0,.116.575.384.384,0,0,0,.347.18.715.715,0,0,0,.169-.022,1.049,1.049,0,0,0,.151-.048l.026.465A1.419,1.419,0,0,1,143.8,196.023Z" transform="translate(-130.209 -187.974)" fill="#fff"/>
    <path id="Path_631" data-name="Path 631" d="M147.573,196.334c-.006-.047-.011-.105-.013-.176s-.007-.145-.01-.224,0-.155,0-.228v-.189h-.018a1.039,1.039,0,0,1-1.066.93,1.053,1.053,0,0,1-.374-.07.91.91,0,0,1-.338-.228,1.241,1.241,0,0,1-.248-.4,1.542,1.542,0,0,1-.1-.584,1.5,1.5,0,0,1,.169-.764,1.329,1.329,0,0,1,.426-.456,1.545,1.545,0,0,1,.564-.224,3.191,3.191,0,0,1,.582-.057h.347v-.228a1.322,1.322,0,0,0-.214-.834.705.705,0,0,0-.578-.263.863.863,0,0,0-.462.132,1.309,1.309,0,0,0-.364.334l-.311-.36A1.36,1.36,0,0,1,146.1,192a1.5,1.5,0,0,1,.657-.158,1.09,1.09,0,0,1,.987.448,2.4,2.4,0,0,1,.293,1.308V195.4c0,.058,0,.132.005.219s.006.177.009.268.007.176.013.255.012.142.018.189Zm-.072-2.212h-.355a2.331,2.331,0,0,0-.426.039.991.991,0,0,0-.377.149.846.846,0,0,0-.271.3,1.031,1.031,0,0,0-.107.5.9.9,0,0,0,.2.658.625.625,0,0,0,.866.053,1.059,1.059,0,0,0,.275-.377,2,2,0,0,0,.147-.5,3.308,3.308,0,0,0,.044-.527Z" transform="translate(-131.1 -188.364)" fill="#fff"/>
    <path id="Path_632" data-name="Path 632" d="M153.007,196.334v-2.809a3.847,3.847,0,0,0-.022-.408,1.255,1.255,0,0,0-.1-.377.725.725,0,0,0-.213-.281.562.562,0,0,0-.36-.11.686.686,0,0,0-.4.118.989.989,0,0,0-.293.325,1.821,1.821,0,0,0-.187.474,2.29,2.29,0,0,0-.067.557v2.51h-.587v-3.256q0-.14,0-.3t-.009-.316q0-.154-.009-.281t-.013-.2h.568c.012.111.021.246.027.4s.009.307.009.448h.018a1.571,1.571,0,0,1,.409-.715.979.979,0,0,1,.711-.276,1,1,0,0,1,.573.149.975.975,0,0,1,.333.391,1.818,1.818,0,0,1,.156.544,4.646,4.646,0,0,1,.039.6v2.809Z" transform="translate(-132.535 -188.364)" fill="#fff"/>
    <path id="Path_633" data-name="Path 633" d="M157.108,190.053a.416.416,0,0,1-.116.3.373.373,0,0,1-.276.118.366.366,0,0,1-.279-.118.462.462,0,0,1,0-.6.38.38,0,0,1,.56,0A.43.43,0,0,1,157.108,190.053Zm-.685,5.688v-4.353h.587v4.353Z" transform="translate(-134.032 -187.771)" fill="#fff"/>
    <path id="Path_634" data-name="Path 634" d="M159.132,195.548v-6.636h.587v6.636Z" transform="translate(-134.825 -187.578)" fill="#fff"/>
    <path id="Path_635" data-name="Path 635" d="M161.8,195.548v-6.636h.587v6.636Z" transform="translate(-135.546 -187.578)" fill="#fff"/>
    <path id="Path_636" data-name="Path 636" d="M166.207,196.334q-.009-.07-.013-.176t-.009-.224q0-.118,0-.228v-.189h-.018a1.067,1.067,0,0,1-1.439.86.9.9,0,0,1-.338-.228,1.243,1.243,0,0,1-.249-.4,1.542,1.542,0,0,1-.1-.584,1.507,1.507,0,0,1,.169-.764,1.329,1.329,0,0,1,.426-.456,1.549,1.549,0,0,1,.565-.224,3.177,3.177,0,0,1,.581-.057h.347v-.228a1.322,1.322,0,0,0-.214-.834.7.7,0,0,0-.578-.263.862.862,0,0,0-.462.132,1.31,1.31,0,0,0-.364.334l-.311-.36a1.36,1.36,0,0,1,.533-.448,1.5,1.5,0,0,1,.658-.158,1.089,1.089,0,0,1,.986.448,2.4,2.4,0,0,1,.293,1.308V195.4q0,.088,0,.219t.009.268q0,.136.013.255t.018.189Zm-.071-2.212h-.355a2.338,2.338,0,0,0-.426.039,1,1,0,0,0-.377.149.847.847,0,0,0-.271.3,1.031,1.031,0,0,0-.107.5.9.9,0,0,0,.2.658.625.625,0,0,0,.866.053,1.062,1.062,0,0,0,.276-.377,2,2,0,0,0,.146-.5,3.229,3.229,0,0,0,.045-.527Z" transform="translate(-136.15 -188.364)" fill="#fff"/>
    <path id="Path_637" data-name="Path 637" d="M175.172,192.881a4.237,4.237,0,0,1-.093.908,2.181,2.181,0,0,1-.3.742,1.463,1.463,0,0,1-.556.5,1.832,1.832,0,0,1-.853.18,1.807,1.807,0,0,1-.848-.18,1.464,1.464,0,0,1-.551-.5,2.1,2.1,0,0,1-.3-.742,4.441,4.441,0,0,1-.089-.908v-4.038h.622V192.8a4.611,4.611,0,0,0,.049.676,1.939,1.939,0,0,0,.178.592,1.085,1.085,0,0,0,.355.417,1.175,1.175,0,0,0,1.177,0,1.071,1.071,0,0,0,.36-.417,1.977,1.977,0,0,0,.178-.588,4.581,4.581,0,0,0,.049-.68v-3.959h.622Zm-1.742-4.529h-.5l.8-1.264h.64Z" transform="translate(-138.185 -187.088)" fill="#fff"/>
    <path id="Path_638" data-name="Path 638" d="M180.569,196.334v-2.809a3.863,3.863,0,0,0-.022-.408,1.279,1.279,0,0,0-.1-.377.727.727,0,0,0-.214-.281.559.559,0,0,0-.36-.11.683.683,0,0,0-.395.118.981.981,0,0,0-.293.325,1.769,1.769,0,0,0-.187.474,2.288,2.288,0,0,0-.067.557v2.51h-.587v-3.256q0-.14,0-.3t-.009-.316q-.006-.154-.009-.281c0-.085-.008-.151-.014-.2h.569q.018.167.026.4t.009.448h.018a1.564,1.564,0,0,1,.409-.715.977.977,0,0,1,.71-.276,1,1,0,0,1,.573.149.975.975,0,0,1,.333.391,1.8,1.8,0,0,1,.156.544,4.524,4.524,0,0,1,.04.6v2.809Z" transform="translate(-140 -188.364)" fill="#fff"/>
    <path id="Path_639" data-name="Path 639" d="M184.67,190.053a.417.417,0,0,1-.116.3.373.373,0,0,1-.276.118.366.366,0,0,1-.279-.118.462.462,0,0,1,0-.6.38.38,0,0,1,.56,0A.43.43,0,0,1,184.67,190.053Zm-.685,5.688v-4.353h.587v4.353Z" transform="translate(-141.503 -187.771)" fill="#fff"/>
    <path id="Path_640" data-name="Path 640" d="M187.849,196.474a1.248,1.248,0,0,1-.658-.171,1.436,1.436,0,0,1-.475-.474,2.337,2.337,0,0,1-.289-.729,4.59,4.59,0,0,1,0-1.887,2.325,2.325,0,0,1,.293-.733,1.414,1.414,0,0,1,.48-.474,1.275,1.275,0,0,1,.657-.167,1.251,1.251,0,0,1,.578.123,1.221,1.221,0,0,1,.382.29l-.31.421a.8.8,0,0,0-.267-.237.764.764,0,0,0-.373-.088.649.649,0,0,0-.413.136,1.036,1.036,0,0,0-.289.377,2.222,2.222,0,0,0-.173.571,4.251,4.251,0,0,0-.058.724,4.118,4.118,0,0,0,.058.711,2.152,2.152,0,0,0,.173.562.962.962,0,0,0,.3.369.715.715,0,0,0,.431.132.781.781,0,0,0,.387-.092.833.833,0,0,0,.279-.259l.267.448A1.18,1.18,0,0,1,187.849,196.474Z" transform="translate(-142.163 -188.364)" fill="#fff"/>
    <path id="Path_641" data-name="Path 641" d="M192.506,196.334q-.009-.07-.013-.176c0-.07-.007-.145-.01-.224s0-.155,0-.228v-.189h-.018a1.039,1.039,0,0,1-1.066.93,1.053,1.053,0,0,1-.374-.07.9.9,0,0,1-.337-.228,1.243,1.243,0,0,1-.249-.4,1.542,1.542,0,0,1-.1-.584,1.507,1.507,0,0,1,.169-.764,1.328,1.328,0,0,1,.426-.456,1.551,1.551,0,0,1,.564-.224,3.191,3.191,0,0,1,.582-.057h.347v-.228a1.322,1.322,0,0,0-.214-.834.7.7,0,0,0-.578-.263.862.862,0,0,0-.462.132,1.309,1.309,0,0,0-.364.334l-.311-.36a1.36,1.36,0,0,1,.533-.448,1.5,1.5,0,0,1,.658-.158,1.089,1.089,0,0,1,.986.448,2.4,2.4,0,0,1,.293,1.308V195.4q0,.088,0,.219t.009.268q0,.136.013.255t.018.189Zm-.071-2.212h-.356a2.331,2.331,0,0,0-.426.039.992.992,0,0,0-.377.149.846.846,0,0,0-.271.3,1.032,1.032,0,0,0-.107.5.9.9,0,0,0,.2.658.625.625,0,0,0,.866.053,1.051,1.051,0,0,0,.275-.377,1.971,1.971,0,0,0,.147-.5,3.231,3.231,0,0,0,.045-.527Z" transform="translate(-143.244 -188.364)" fill="#fff"/>
    <path id="Path_642" data-name="Path 642" d="M200.036,195.548v-.781h-.018a1.509,1.509,0,0,1-.355.658.92.92,0,0,1-.7.263,1.034,1.034,0,0,1-.6-.176,1.436,1.436,0,0,1-.435-.487,2.607,2.607,0,0,1-.271-.737,4.322,4.322,0,0,1-.094-.935,4.517,4.517,0,0,1,.089-.93,2.507,2.507,0,0,1,.263-.724,1.358,1.358,0,0,1,.435-.474,1.072,1.072,0,0,1,.6-.171.987.987,0,0,1,.675.241,1.211,1.211,0,0,1,.374.636h.018v-3.019h.587v6.636Zm0-2.177a4.2,4.2,0,0,0-.058-.72,2.085,2.085,0,0,0-.178-.575,1.1,1.1,0,0,0-.3-.382.671.671,0,0,0-.821,0,1.079,1.079,0,0,0-.289.382,2.093,2.093,0,0,0-.169.575,4.62,4.62,0,0,0-.053.72,4.475,4.475,0,0,0,.053.707,2.156,2.156,0,0,0,.169.575,1.072,1.072,0,0,0,.289.386.677.677,0,0,0,.826,0,1.115,1.115,0,0,0,.293-.386,2.15,2.15,0,0,0,.178-.575A4.064,4.064,0,0,0,200.036,193.371Z" transform="translate(-145.194 -187.578)" fill="#fff"/>
    <path id="Path_643" data-name="Path 643" d="M203.813,194.28a3.278,3.278,0,0,0,.063.663,1.928,1.928,0,0,0,.183.527.988.988,0,0,0,.3.351.742.742,0,0,0,.434.127.709.709,0,0,0,.518-.193,1.347,1.347,0,0,0,.3-.465l.444.255a1.689,1.689,0,0,1-.475.663,1.2,1.2,0,0,1-.8.268,1.3,1.3,0,0,1-1.146-.614,3.028,3.028,0,0,1-.409-1.694,3.907,3.907,0,0,1,.106-.939,2.4,2.4,0,0,1,.306-.737,1.482,1.482,0,0,1,.487-.478,1.338,1.338,0,0,1,1.3,0,1.277,1.277,0,0,1,.439.456,2.171,2.171,0,0,1,.244.676,4.286,4.286,0,0,1,.075.825v.316Zm1.786-.483a2.323,2.323,0,0,0-.206-1.058.678.678,0,0,0-.643-.4.631.631,0,0,0-.433.154,1.225,1.225,0,0,0-.285.377,1.852,1.852,0,0,0-.161.478,2.384,2.384,0,0,0-.049.448Z" transform="translate(-146.721 -188.364)" fill="#fff"/>
    <path id="Path_644" data-name="Path 644" d="M213.67,195.577a1.8,1.8,0,0,1-1.777-.031,2.144,2.144,0,0,1-.676-.685,3.459,3.459,0,0,1-.422-1.031,5.8,5.8,0,0,1,0-2.589,3.369,3.369,0,0,1,.427-1.031,2.131,2.131,0,0,1,.679-.68,1.694,1.694,0,0,1,.906-.246,1.907,1.907,0,0,1,.831.184,1.576,1.576,0,0,1,.644.579l-.4.4a1.384,1.384,0,0,0-.475-.456,1.171,1.171,0,0,0-.573-.149,1.122,1.122,0,0,0-.679.211,1.627,1.627,0,0,0-.48.579,3.135,3.135,0,0,0-.285.86,5.6,5.6,0,0,0-.093,1.044,5.287,5.287,0,0,0,.1,1.04,3.241,3.241,0,0,0,.289.856,1.67,1.67,0,0,0,.48.584,1.106,1.106,0,0,0,.68.215,1.064,1.064,0,0,0,.614-.189,1.509,1.509,0,0,0,.453-.5l.391.4A1.76,1.76,0,0,1,213.67,195.577Z" transform="translate(-148.724 -187.678)" fill="#fff"/>
    <path id="Path_645" data-name="Path 645" d="M219.359,194.166a3.838,3.838,0,0,1-.106.939,2.484,2.484,0,0,1-.3.729,1.412,1.412,0,0,1-.484.474,1.269,1.269,0,0,1-.644.167,1.241,1.241,0,0,1-.64-.167,1.459,1.459,0,0,1-.484-.474,2.411,2.411,0,0,1-.306-.729,3.838,3.838,0,0,1-.107-.939,4.107,4.107,0,0,1,.1-.948,2.4,2.4,0,0,1,.3-.737,1.406,1.406,0,0,1,.484-.474,1.282,1.282,0,0,1,.653-.167,1.269,1.269,0,0,1,.644.167,1.413,1.413,0,0,1,.484.474,2.475,2.475,0,0,1,.3.737A3.946,3.946,0,0,1,219.359,194.166Zm-.6-.013a4.17,4.17,0,0,0-.058-.718,2.188,2.188,0,0,0-.173-.574,1.091,1.091,0,0,0-.289-.381.64.64,0,0,0-.413-.14.657.657,0,0,0-.418.14,1.019,1.019,0,0,0-.289.381,2.342,2.342,0,0,0-.169.574,4.245,4.245,0,0,0-.058.718,4.1,4.1,0,0,0,.058.709,2.429,2.429,0,0,0,.169.569.98.98,0,0,0,.289.381.712.712,0,0,0,.835,0,.986.986,0,0,0,.289-.381,2.4,2.4,0,0,0,.168-.569A4.032,4.032,0,0,0,218.756,194.153Z" transform="translate(-150.244 -188.364)" fill="#fff"/>
    <path id="Path_646" data-name="Path 646" d="M223,192.116a.98.98,0,0,1,.721-.276.935.935,0,0,1,.411.083.9.9,0,0,1,.292.219.98.98,0,0,1,.187.32,2.4,2.4,0,0,1,.1.377h.018a1.778,1.778,0,0,1,.15-.373,1.307,1.307,0,0,1,.244-.32,1.155,1.155,0,0,1,.336-.224,1.061,1.061,0,0,1,.429-.083.969.969,0,0,1,.567.149,1.025,1.025,0,0,1,.331.391,1.737,1.737,0,0,1,.159.544,4.649,4.649,0,0,1,.039.6v2.809H226.4v-2.809a3.858,3.858,0,0,0-.023-.408,1.347,1.347,0,0,0-.093-.377.69.69,0,0,0-.209-.281.573.573,0,0,0-.369-.11.669.669,0,0,0-.386.118.94.94,0,0,0-.289.325,1.763,1.763,0,0,0-.178.474,2.442,2.442,0,0,0-.062.557v2.51h-.587v-2.809a3.98,3.98,0,0,0-.022-.413,1.462,1.462,0,0,0-.089-.382.623.623,0,0,0-.2-.277.571.571,0,0,0-.358-.105.66.66,0,0,0-.389.118,1.014,1.014,0,0,0-.287.325,1.716,1.716,0,0,0-.181.474,2.484,2.484,0,0,0-.061.557v2.51h-.587v-3.256q0-.14,0-.3t-.009-.316q0-.154-.009-.281t-.013-.2h.577q.018.167.026.4t.009.448h.018A1.412,1.412,0,0,1,223,192.116Z" transform="translate(-151.787 -188.364)" fill="#fff"/>
    <path id="Path_647" data-name="Path 647" d="M230.878,194.28a3.28,3.28,0,0,0,.063.663,1.928,1.928,0,0,0,.183.527.988.988,0,0,0,.3.351.74.74,0,0,0,.434.127.709.709,0,0,0,.518-.193,1.347,1.347,0,0,0,.3-.465l.444.255a1.689,1.689,0,0,1-.475.663,1.2,1.2,0,0,1-.8.268,1.3,1.3,0,0,1-1.145-.614,3.028,3.028,0,0,1-.409-1.694,3.905,3.905,0,0,1,.106-.939,2.4,2.4,0,0,1,.306-.737,1.482,1.482,0,0,1,.487-.478,1.338,1.338,0,0,1,1.3,0,1.277,1.277,0,0,1,.439.456,2.171,2.171,0,0,1,.244.676,4.287,4.287,0,0,1,.075.825v.316Zm1.786-.483a2.324,2.324,0,0,0-.206-1.058.678.678,0,0,0-.643-.4.631.631,0,0,0-.433.154,1.225,1.225,0,0,0-.285.377,1.854,1.854,0,0,0-.161.478,2.394,2.394,0,0,0-.05.448Z" transform="translate(-154.023 -188.364)" fill="#fff"/>
    <path id="Path_648" data-name="Path 648" d="M236.8,192.107a.813.813,0,0,1,.587-.255.475.475,0,0,1,.106.009l-.018.6a.656.656,0,0,0-.067-.013.544.544,0,0,0-.075,0,.589.589,0,0,0-.4.149,1.184,1.184,0,0,0-.289.386,2.135,2.135,0,0,0-.173.54,3.18,3.18,0,0,0-.058.6v2.221h-.587v-3.256q0-.14,0-.3t-.009-.316c0-.1-.007-.2-.01-.281s-.007-.151-.013-.2h.569q.018.167.026.417t.009.531h.018A1.632,1.632,0,0,1,236.8,192.107Z" transform="translate(-155.505 -188.367)" fill="#fff"/>
    <path id="Path_649" data-name="Path 649" d="M240.2,196.474a1.248,1.248,0,0,1-.658-.171,1.428,1.428,0,0,1-.475-.474,2.338,2.338,0,0,1-.289-.729,4.592,4.592,0,0,1,0-1.887,2.327,2.327,0,0,1,.293-.733,1.418,1.418,0,0,1,.479-.474,1.279,1.279,0,0,1,.658-.167,1.251,1.251,0,0,1,.578.123,1.222,1.222,0,0,1,.382.29l-.31.421a.8.8,0,0,0-.267-.237.764.764,0,0,0-.373-.088.649.649,0,0,0-.413.136,1.036,1.036,0,0,0-.289.377,2.222,2.222,0,0,0-.173.571,4.251,4.251,0,0,0-.058.724,4.118,4.118,0,0,0,.058.711,2.153,2.153,0,0,0,.173.562.962.962,0,0,0,.3.369.715.715,0,0,0,.431.132.781.781,0,0,0,.387-.092.84.84,0,0,0,.279-.259l.267.448A1.18,1.18,0,0,1,240.2,196.474Z" transform="translate(-156.286 -188.364)" fill="#fff"/>
    <path id="Path_650" data-name="Path 650" d="M243.779,190.053a.416.416,0,0,1-.115.3.373.373,0,0,1-.276.118.367.367,0,0,1-.28-.118.464.464,0,0,1,0-.6.381.381,0,0,1,.56,0A.43.43,0,0,1,243.779,190.053Zm-.684,5.688v-4.353h.587v4.353Z" transform="translate(-157.448 -187.771)" fill="#fff"/>
    <path id="Path_651" data-name="Path 651" d="M248.513,194.166a3.836,3.836,0,0,1-.106.939,2.485,2.485,0,0,1-.3.729,1.4,1.4,0,0,1-.484.474,1.264,1.264,0,0,1-.644.167,1.242,1.242,0,0,1-.64-.167,1.459,1.459,0,0,1-.484-.474,2.411,2.411,0,0,1-.306-.729,3.836,3.836,0,0,1-.107-.939,4.107,4.107,0,0,1,.1-.948,2.4,2.4,0,0,1,.3-.737,1.406,1.406,0,0,1,.484-.474,1.28,1.28,0,0,1,.653-.167,1.264,1.264,0,0,1,.644.167,1.4,1.4,0,0,1,.484.474,2.476,2.476,0,0,1,.3.737A3.945,3.945,0,0,1,248.513,194.166Zm-.6-.013a4.171,4.171,0,0,0-.058-.718,2.19,2.19,0,0,0-.173-.574,1.075,1.075,0,0,0-.289-.381.637.637,0,0,0-.413-.14.657.657,0,0,0-.418.14,1.019,1.019,0,0,0-.289.381,2.31,2.31,0,0,0-.169.574,4.245,4.245,0,0,0-.058.718,4.1,4.1,0,0,0,.058.709,2.394,2.394,0,0,0,.169.569.98.98,0,0,0,.289.381.712.712,0,0,0,.835,0,.986.986,0,0,0,.288-.381,2.4,2.4,0,0,0,.169-.569A4.033,4.033,0,0,0,247.909,194.153Z" transform="translate(-158.109 -188.364)" fill="#fff"/>
    <path id="Path_652" data-name="Path 652" d="M253.444,195.7v-6.214h2.533v.544h-1.928v2.177h1.8v.527h-1.8v2.414h2.017v.553Z" transform="translate(-160.301 -187.733)" fill="#fff"/>
    <path id="Path_653" data-name="Path 653" d="M260.143,196.385l-.879-1.826-.871,1.826h-.648l1.172-2.291-1.075-2.063h.658l.773,1.641.764-1.641h.639l-1.057,2.054,1.191,2.3Z" transform="translate(-161.456 -188.416)" fill="#fff"/>
    <path id="Path_654" data-name="Path 654" d="M264.063,196.023a1.221,1.221,0,0,1-.293.035.7.7,0,0,1-.653-.316,1.619,1.619,0,0,1-.191-.843v-2.835h-.577v-.474h.568v-1.2h.578v1.2h.781v.474H263.5v2.73a1.091,1.091,0,0,0,.116.575.383.383,0,0,0,.346.18.705.705,0,0,0,.169-.022,1,1,0,0,0,.151-.048l.027.465A1.414,1.414,0,0,1,264.063,196.023Z" transform="translate(-162.693 -187.974)" fill="#fff"/>
    <path id="Path_655" data-name="Path 655" d="M266.325,194.28a3.281,3.281,0,0,0,.062.663,1.928,1.928,0,0,0,.183.527.99.99,0,0,0,.3.351.738.738,0,0,0,.433.127.708.708,0,0,0,.518-.193,1.326,1.326,0,0,0,.3-.465l.444.255a1.688,1.688,0,0,1-.475.663,1.2,1.2,0,0,1-.8.268,1.3,1.3,0,0,1-1.146-.614,3.028,3.028,0,0,1-.409-1.694,3.908,3.908,0,0,1,.106-.939,2.4,2.4,0,0,1,.306-.737,1.489,1.489,0,0,1,.487-.478,1.34,1.34,0,0,1,1.3,0,1.281,1.281,0,0,1,.438.456,2.172,2.172,0,0,1,.244.676,4.289,4.289,0,0,1,.075.825v.316Zm1.785-.483a2.324,2.324,0,0,0-.2-1.058.679.679,0,0,0-.644-.4.631.631,0,0,0-.433.154,1.226,1.226,0,0,0-.285.377,1.853,1.853,0,0,0-.161.478,2.385,2.385,0,0,0-.049.448Z" transform="translate(-163.603 -188.364)" fill="#fff"/>
    <path id="Path_656" data-name="Path 656" d="M272.245,192.107a.813.813,0,0,1,.587-.255.486.486,0,0,1,.107.009l-.018.6a.671.671,0,0,0-.067-.013.545.545,0,0,0-.075,0,.587.587,0,0,0-.395.149,1.183,1.183,0,0,0-.289.386,2.135,2.135,0,0,0-.173.54,3.18,3.18,0,0,0-.058.6v2.221h-.587v-3.256q0-.14,0-.3t-.009-.316q0-.154-.009-.281c0-.085-.007-.151-.013-.2h.568c.012.111.02.25.027.417s.008.344.008.531h.018A1.633,1.633,0,0,1,272.245,192.107Z" transform="translate(-165.081 -188.367)" fill="#fff"/>
    <path id="Path_657" data-name="Path 657" d="M275.217,190.053a.416.416,0,0,1-.115.3.373.373,0,0,1-.276.118.368.368,0,0,1-.28-.118.464.464,0,0,1,0-.6.381.381,0,0,1,.56,0A.429.429,0,0,1,275.217,190.053Zm-.684,5.688v-4.353h.587v4.353Z" transform="translate(-165.939 -187.771)" fill="#fff"/>
    <path id="Path_658" data-name="Path 658" d="M279.951,194.166a3.835,3.835,0,0,1-.107.939,2.483,2.483,0,0,1-.3.729,1.406,1.406,0,0,1-.484.474,1.265,1.265,0,0,1-.644.167,1.239,1.239,0,0,1-.639-.167,1.46,1.46,0,0,1-.485-.474,2.43,2.43,0,0,1-.306-.729,3.838,3.838,0,0,1-.107-.939,4.107,4.107,0,0,1,.1-.948,2.4,2.4,0,0,1,.3-.737,1.406,1.406,0,0,1,.484-.474,1.284,1.284,0,0,1,.653-.167,1.265,1.265,0,0,1,.644.167,1.406,1.406,0,0,1,.484.474,2.475,2.475,0,0,1,.3.737A3.943,3.943,0,0,1,279.951,194.166Zm-.6-.013a4.174,4.174,0,0,0-.058-.718,2.216,2.216,0,0,0-.173-.574,1.084,1.084,0,0,0-.289-.381.639.639,0,0,0-.413-.14.657.657,0,0,0-.418.14,1.026,1.026,0,0,0-.289.381,2.311,2.311,0,0,0-.168.574,4.171,4.171,0,0,0-.058.718,4.033,4.033,0,0,0,.058.709,2.4,2.4,0,0,0,.168.569.986.986,0,0,0,.289.381.712.712,0,0,0,.835,0,.98.98,0,0,0,.289-.381,2.427,2.427,0,0,0,.169-.569A4.036,4.036,0,0,0,279.347,194.153Z" transform="translate(-166.594 -188.364)" fill="#fff"/>
    <path id="Path_659" data-name="Path 659" d="M283.59,192.107a.813.813,0,0,1,.587-.255.476.476,0,0,1,.106.009l-.018.6a.654.654,0,0,0-.067-.013.544.544,0,0,0-.075,0,.589.589,0,0,0-.4.149,1.184,1.184,0,0,0-.289.386,2.135,2.135,0,0,0-.173.54,3.18,3.18,0,0,0-.058.6v2.221h-.587v-3.256q0-.14,0-.3t-.009-.316c0-.1-.007-.2-.009-.281s-.007-.151-.013-.2h.569q.018.167.026.417t.009.531h.018A1.632,1.632,0,0,1,283.59,192.107Z" transform="translate(-168.128 -188.367)" fill="#fff"/>
  </g>
  <rect id="Rectangle_1138" data-name="Rectangle 1138" width="118" height="10.442" rx="2.639" transform="translate(0 44.625)" fill="#1a1818"/>
  <g id="Group_61" data-name="Group 61" transform="translate(87.382 46.067)">
    <path id="Path_660" data-name="Path 660" d="M251.415,253.027c0,1.369-1.249,2.219-3.244,2.219h-1.5v1.693h-1.728V250.8h3.233C250.166,250.8,251.415,251.65,251.415,253.027Zm-1.75,0c0-.675-.533-1.07-1.589-1.07h-1.409v2.131h1.409C249.131,254.088,249.665,253.694,249.665,253.027Z" transform="translate(-244.938 -250.352)" fill="#fff"/>
    <path id="Path_661" data-name="Path 661" d="M260.921,255.462h-4.343c.16.587.769.947,1.644.947a2.19,2.19,0,0,0,1.44-.456l.886.79a3.365,3.365,0,0,1-2.368.763c-1.985,0-3.276-1.026-3.276-2.43s1.313-2.43,3.063-2.43c1.686,0,2.987.93,2.987,2.447C260.953,255.2,260.931,255.348,260.921,255.462Zm-4.364-.8h2.827a1.508,1.508,0,0,0-2.827,0Z" transform="translate(-247.614 -250.848)" fill="#fff"/>
    <path id="Path_662" data-name="Path 662" d="M268.446,252.646v1.263c-.138-.009-.245-.018-.373-.018-.918,0-1.526.413-1.526,1.316v2.228h-1.665v-4.719h1.59v.622A2.56,2.56,0,0,1,268.446,252.646Z" transform="translate(-250.294 -250.848)" fill="#fff"/>
    <path id="Path_663" data-name="Path 663" d="M277.132,252.056v4.719h-1.579v-.561a2.581,2.581,0,0,1-1.782.631c-1.441,0-2.455-.666-2.455-2.123v-2.667h1.665v2.465a1.022,1.022,0,0,0,1.163,1.14,1.186,1.186,0,0,0,1.323-1.272v-2.333Zm-2.583-.6h-1.3l1.44-1.263h1.793Z" transform="translate(-252.022 -250.188)" fill="#fff"/>
  </g>
  <g id="Group_62" data-name="Group 62" transform="translate(85.953 12.216)">
    <path id="Path_664" data-name="Path 664" d="M274.929,220.612H253.736a6.666,6.666,0,0,0,1.377,3.733,5.046,5.046,0,0,0,4,1.764,6.083,6.083,0,0,0,2.961-.767,6.923,6.923,0,0,0,1.844-1.712l10.415.946a14.8,14.8,0,0,1-5.766,5.866q-3.377,1.776-9.687,1.777a20.108,20.108,0,0,1-8.623-1.521,12.568,12.568,0,0,1-5.207-4.83,14.4,14.4,0,0,1-2.065-7.783,13.56,13.56,0,0,1,4.142-10.3q4.143-3.935,11.44-3.937,5.923,0,9.351,1.764a12.009,12.009,0,0,1,5.22,5.112,18.44,18.44,0,0,1,1.791,8.717Zm-10.752-4.984a6.9,6.9,0,0,0-1.649-4.32,5.232,5.232,0,0,0-7.545.664,7.141,7.141,0,0,0-1.221,3.656Z" transform="translate(-242.984 -203.844)" fill="#fff"/>
  </g>
  <g id="Group_63" data-name="Group 63" transform="translate(57.193 11.964)">
    <path id="Path_665" data-name="Path 665" d="M224.95,220.388l10.1,1.625a14.132,14.132,0,0,1-2.692,5.432,12.5,12.5,0,0,1-4.779,3.566,18.57,18.57,0,0,1-7.393,1.271,26.955,26.955,0,0,1-7.214-.816,12.561,12.561,0,0,1-4.958-2.642,13.33,13.33,0,0,1-3.255-4.288,15.256,15.256,0,0,1-1.178-6.53,15.524,15.524,0,0,1,1.435-7.072,12.779,12.779,0,0,1,2.87-3.718,13.214,13.214,0,0,1,3.741-2.448,20.525,20.525,0,0,1,7.816-1.269q6.663,0,10.161,2.411a12.719,12.719,0,0,1,4.908,7.053l-9.661,1.964a6.7,6.7,0,0,0-1.833-3.3,5.4,5.4,0,0,0-3.267-.894,5.245,5.245,0,0,0-4.19,1.876q-1.6,1.877-1.6,5.682a7.448,7.448,0,0,0,1.589,5.151,5.213,5.213,0,0,0,4.049,1.76,5.521,5.521,0,0,0,3.447-1.063C223.971,223.431,224.489,221.857,224.95,220.388Z" transform="translate(-203.577 -203.499)" fill="#fff"/>
  </g>
</svg>
