<svg xmlns="http://www.w3.org/2000/svg" width="79.437" height="76.131" viewBox="0 0 79.437 76.131">
  <g id="Group_73" data-name="Group 73" transform="translate(-16.568 -963.638)">
    <g id="Group_71" data-name="Group 71">
      <circle id="Oval-2" cx="34.881" cy="34.881" r="34.881" transform="translate(16.568 970.007)" fill="#e6e4e4" opacity="0.383" style="isolation: isolate"/>
      <circle id="Oval-2-Copy" cx="34.881" cy="34.881" r="34.881" transform="translate(26.243 963.638)" fill="#e6e4e4" opacity="0.336" style="isolation: isolate"/>
    </g>
    <g id="Group_94" data-name="Group 94" transform="translate(-286 -280)">
      <path id="Path_673" data-name="Path 673" d="M19.515,989.458l-.226,21.4H77.339l.08-25.716Z" transform="translate(293.004 277.472)" fill="#fff"/>
      <g id="Group_72" data-name="Group 72" transform="translate(289 281)">
        <line id="Line_65" data-name="Line 65" x2="1.803" transform="translate(73.012 1014.717)" fill="#7bd2f7" stroke="#96d9f4" stroke-linecap="round" stroke-linejoin="round" stroke-width="4"/>
        <g id="Group_91" data-name="Group 91" transform="translate(4.071 2.883)">
          <line id="Line_64" data-name="Line 64" y1="1.412" transform="translate(19.55 1000.697)" fill="none" stroke="#323f44" stroke-linecap="round" stroke-linejoin="round" stroke-width="1"/>
          <path id="Path_674" data-name="Path 674" d="M19.777,990.645v-7.809a4,4,0,0,1,3.987-3.988h48.85a4,4,0,0,1,3.988,3.988V1015.4a4,4,0,0,1-3.988,3.988" transform="translate(-0.061)" fill="none" stroke="#323f44" stroke-linecap="round" stroke-linejoin="round" stroke-width="1"/>
          <path id="Path_675" data-name="Path 675" d="M58.835,1021.29H23.277a4,4,0,0,1-3.988-3.988v-9.969H76.114v9.969a4,4,0,0,1-3.988,3.988H65.259" transform="translate(0 -3.547)" fill="#fff" stroke="#323f43" stroke-linecap="round" stroke-width="1"/>
          <line id="Line_66" data-name="Line 66" x2="33.314" transform="translate(19.973 1010.251)" fill="#96d9f4" stroke="#c22821" stroke-linecap="round" stroke-linejoin="round" stroke-width="2"/>
          <path id="Path_676" data-name="Path 676" d="M77.238,997.315h0a5.666,5.666,0,0,0,5.65-5.65v-8.64a4,4,0,0,0-3.988-3.987H71.588v12.627A5.666,5.666,0,0,0,77.238,997.315Z" transform="translate(-6.512 -0.024)" fill="#e6e4e4" stroke="#323f44" stroke-linecap="round" stroke-linejoin="round" stroke-width="1"/>
          <path id="Path_677" data-name="Path 677" d="M25.237,997.315h0a5.666,5.666,0,0,1-5.65-5.65v-8.64a4,4,0,0,1,3.988-3.987h7.31v12.627A5.666,5.666,0,0,1,25.237,997.315Z" transform="translate(-0.037 -0.024)" fill="#e6e4e4" stroke="#323f44" stroke-linecap="round" stroke-linejoin="round" stroke-width="1"/>
          <path id="Path_678" data-name="Path 678" d="M38.245,997.315h0a5.666,5.666,0,0,1-5.65-5.65V979.038h11.3v12.627A5.666,5.666,0,0,1,38.245,997.315Z" transform="translate(-1.657 -0.024)" fill="#fff" stroke="#323f43" stroke-linecap="round" stroke-width="1"/>
          <path id="Path_679" data-name="Path 679" d="M64.353,997.315h0a5.666,5.666,0,0,1-5.65-5.65V979.038H70v12.627A5.666,5.666,0,0,1,64.353,997.315Z" transform="translate(-4.908 -0.024)" fill="#fff" stroke="#323f43" stroke-linecap="round" stroke-width="1"/>
          <path id="Path_680" data-name="Path 680" d="M51.414,997.315h0a5.666,5.666,0,0,1-5.649-5.65V979.038h11.3v12.627A5.666,5.666,0,0,1,51.414,997.315Z" transform="translate(-3.297 -0.024)" fill="#e6e4e4" stroke="#323f44" stroke-linecap="round" stroke-linejoin="round" stroke-width="1"/>
        </g>
        <g id="Group_93" data-name="Group 93" transform="translate(-1.48 -0.48)">
          <circle id="Ellipse_98" data-name="Ellipse 98" cx="10.486" cy="10.486" r="10.486" transform="translate(67.16 1005.228)" fill="#fff"/>
          <circle id="Ellipse_99" data-name="Ellipse 99" cx="10.486" cy="10.486" r="10.486" transform="translate(68.833 1006.901)" fill="#c22821"/>
          <circle id="Ellipse_100" data-name="Ellipse 100" cx="10.486" cy="10.486" r="10.486" transform="translate(67.16 1005.228)" stroke-width="1" stroke="#323f44" stroke-linecap="round" stroke-linejoin="round" fill="none"/>
          <path id="Path_681" data-name="Path 681" d="M78.272,1016.291H82.4v4.127" transform="translate(-1.315 -1.309)" fill="none" stroke="#a0141b" stroke-linecap="round" stroke-linejoin="round" stroke-width="2"/>
          <line id="Line_67" data-name="Line 67" y1="4.102" x2="4.102" transform="translate(75.566 1014.334)" fill="#ffd8c0" stroke="#f7f8f8" stroke-linecap="round" stroke-linejoin="round" stroke-width="2"/>
          <path id="Path_682" data-name="Path 682" d="M76.8,1015.225h4.127v4.127" transform="translate(-1.14 -1.183)" fill="none" stroke="#fff" stroke-linecap="round" stroke-linejoin="round" stroke-width="2"/>
        </g>
        <g id="Group_92" data-name="Group 92" transform="translate(2.277 1.043)">
          <rect id="Rectangle_1146" data-name="Rectangle 1146" width="25.903" height="11.163" rx="5.582" transform="translate(16.839 974.138)" fill="#c22821"/>
          <rect id="Rectangle_1147" data-name="Rectangle 1147" width="25.903" height="11.163" rx="5.582" transform="translate(15.538 972.838)" stroke-width="1" stroke="#323f44" stroke-linecap="round" stroke-linejoin="round" fill="none"/>
          <line id="Line_68" data-name="Line 68" x2="10.296" transform="translate(19.657 978.04)" fill="none" stroke="#fff" stroke-linecap="round" stroke-linejoin="round" stroke-width="2"/>
          <line id="Line_69" data-name="Line 69" x2="2.168" transform="translate(32.662 978.04)" fill="#ffd8c0" stroke="#a0141b" stroke-linecap="round" stroke-linejoin="round" stroke-width="2"/>
        </g>
      </g>
    </g>
  </g>
</svg>
